{
  "data": [
    {
      "displayName": "Amandine",
      "id": "@amandine:chat.imzqqq.top"
    },
    {
      "displayName": "Benoit",
      "id": "@benoit:chat.imzqqq.top"
    },
    {
      "displayName": "Gaelle",
      "id": "@gawa:chat.imzqqq.top"
    },
    {
      "displayName": "Manu",
      "id": "@manu:chat.imzqqq.top"
    },
    {
      "displayName": "Matthew",
      "id": "@matthew:chat.imzqqq.top"
    },
    {
      "displayName": "Nad",
      "id": "@nadonomy:chat.imzqqq.top"
    }
  ]
}
