[
  {
    "login": "AlessandroPomponio",
    "avatar_url": "https://avatars.githubusercontent.com/u/10339005?v=4",
    "html_url": "https://github.com/AlessandroPomponio"
  },
  {
    "login": "AlexisAnzieu",
    "avatar_url": "https://avatars.githubusercontent.com/u/11615615?v=4",
    "html_url": "https://github.com/AlexisAnzieu"
  },
  {
    "login": "BanjoFox",
    "avatar_url": "https://avatars.githubusercontent.com/u/4459812?v=4",
    "html_url": "https://github.com/BanjoFox"
  },
  {
    "login": "ForestJohnson",
    "avatar_url": "https://avatars.githubusercontent.com/u/7119703?v=4",
    "html_url": "https://github.com/ForestJohnson"
  },
  {
    "login": "ImgBotApp",
    "avatar_url": "https://avatars.githubusercontent.com/u/31427850?v=4",
    "html_url": "https://github.com/ImgBotApp"
  },
  {
    "login": "Jack073",
    "avatar_url": "https://avatars.githubusercontent.com/u/40802798?v=4",
    "html_url": "https://github.com/Jack073"
  },
  {
    "login": "Juneezee",
    "avatar_url": "https://avatars.githubusercontent.com/u/20135478?v=4",
    "html_url": "https://github.com/Juneezee"
  },
  {
    "login": "KamistixX",
    "avatar_url": "https://avatars.githubusercontent.com/u/33351448?v=4",
    "html_url": "https://github.com/KamistixX"
  },
  {
    "login": "MFTabriz",
    "avatar_url": "https://avatars.githubusercontent.com/u/39205857?v=4",
    "html_url": "https://github.com/MFTabriz"
  },
  {
    "login": "Marzal",
    "avatar_url": "https://avatars.githubusercontent.com/u/2069735?v=4",
    "html_url": "https://github.com/Marzal"
  },
  {
    "login": "Patil2099",
    "avatar_url": "https://avatars.githubusercontent.com/u/35653876?v=4",
    "html_url": "https://github.com/Patil2099"
  },
  {
    "login": "Pranav2612000",
    "avatar_url": "https://avatars.githubusercontent.com/u/20909078?v=4",
    "html_url": "https://github.com/Pranav2612000"
  },
  {
    "login": "RhnSharma",
    "avatar_url": "https://avatars.githubusercontent.com/u/22129063?v=4",
    "html_url": "https://github.com/RhnSharma"
  },
  {
    "login": "RobertoJBeltran",
    "avatar_url": "https://avatars.githubusercontent.com/u/45843750?v=4",
    "html_url": "https://github.com/RobertoJBeltran"
  },
  {
    "login": "Scrumplex",
    "avatar_url": "https://avatars.githubusercontent.com/u/11587657?v=4",
    "html_url": "https://github.com/Scrumplex"
  },
  {
    "login": "SeaLife",
    "avatar_url": "https://avatars.githubusercontent.com/u/6567620?v=4",
    "html_url": "https://github.com/SeaLife"
  },
  {
    "login": "Senney",
    "avatar_url": "https://avatars.githubusercontent.com/u/375520?v=4",
    "html_url": "https://github.com/Senney"
  },
  {
    "login": "SoldierCorp",
    "avatar_url": "https://avatars.githubusercontent.com/u/1775881?v=4",
    "html_url": "https://github.com/SoldierCorp"
  },
  {
    "login": "YarmoM",
    "avatar_url": "https://avatars.githubusercontent.com/u/1518007?v=4",
    "html_url": "https://github.com/YarmoM"
  },
  {
    "login": "aangiel",
    "avatar_url": "https://avatars.githubusercontent.com/u/6220692?v=4",
    "html_url": "https://github.com/aangiel"
  },
  {
    "login": "aaronpk",
    "avatar_url": "https://avatars.githubusercontent.com/u/113001?v=4",
    "html_url": "https://github.com/aaronpk"
  },
  {
    "login": "ahmadkarlam",
    "avatar_url": "https://avatars.githubusercontent.com/u/4019710?v=4",
    "html_url": "https://github.com/ahmadkarlam"
  },
  {
    "login": "anoopmsivadas",
    "avatar_url": "https://avatars.githubusercontent.com/u/46913894?v=4",
    "html_url": "https://github.com/anoopmsivadas"
  },
  {
    "login": "aral",
    "avatar_url": "https://avatars.githubusercontent.com/u/41798?v=4",
    "html_url": "https://github.com/aral"
  },
  {
    "login": "ateamlunchbox",
    "avatar_url": "https://avatars.githubusercontent.com/u/6250641?v=4",
    "html_url": "https://github.com/ateamlunchbox"
  },
  {
    "login": "bgildson",
    "avatar_url": "https://avatars.githubusercontent.com/u/4239610?v=4",
    "html_url": "https://github.com/bgildson"
  },
  {
    "login": "bitspill",
    "avatar_url": "https://avatars.githubusercontent.com/u/6021929?v=4",
    "html_url": "https://github.com/bitspill"
  },
  {
    "login": "bontibon",
    "avatar_url": "https://avatars.githubusercontent.com/u/110883?v=4",
    "html_url": "https://github.com/bontibon"
  },
  {
    "login": "brownchow",
    "avatar_url": "https://avatars.githubusercontent.com/u/8622915?v=4",
    "html_url": "https://github.com/brownchow"
  },
  {
    "login": "christianhorn",
    "avatar_url": "https://avatars.githubusercontent.com/u/1409927?v=4",
    "html_url": "https://github.com/christianhorn"
  },
  {
    "login": "controlfreakstudio",
    "avatar_url": "https://avatars.githubusercontent.com/u/67573032?v=4",
    "html_url": "https://github.com/controlfreakstudio"
  },
  {
    "login": "craftamap",
    "avatar_url": "https://avatars.githubusercontent.com/u/6420231?v=4",
    "html_url": "https://github.com/craftamap"
  },
  {
    "login": "dependabot[bot]",
    "avatar_url": "https://avatars.githubusercontent.com/in/29110?v=4",
    "html_url": "https://github.com/apps/dependabot"
  },
  {
    "login": "earnestma",
    "avatar_url": "https://avatars.githubusercontent.com/u/51169564?v=4",
    "html_url": "https://github.com/earnestma"
  },
  {
    "login": "felix-engelmann",
    "avatar_url": "https://avatars.githubusercontent.com/u/5196262?v=4",
    "html_url": "https://github.com/felix-engelmann"
  },
  {
    "login": "gabek",
    "avatar_url": "https://avatars.githubusercontent.com/u/414923?v=4",
    "html_url": "https://github.com/gabek"
  },
  {
    "login": "geekgonecrazy",
    "avatar_url": "https://avatars.githubusercontent.com/u/51996?v=4",
    "html_url": "https://github.com/geekgonecrazy"
  },
  {
    "login": "gingervitis",
    "avatar_url": "https://avatars.githubusercontent.com/u/9563255?v=4",
    "html_url": "https://github.com/gingervitis"
  },
  {
    "login": "graywolf336",
    "avatar_url": "https://avatars.githubusercontent.com/u/850391?v=4",
    "html_url": "https://github.com/graywolf336"
  },
  {
    "login": "gustavohmsilva",
    "avatar_url": "https://avatars.githubusercontent.com/u/43112750?v=4",
    "html_url": "https://github.com/gustavohmsilva"
  },
  {
    "login": "halilkocaoz",
    "avatar_url": "https://avatars.githubusercontent.com/u/32971396?v=4",
    "html_url": "https://github.com/halilkocaoz"
  },
  {
    "login": "imgbot[bot]",
    "avatar_url": "https://avatars.githubusercontent.com/in/4706?v=4",
    "html_url": "https://github.com/apps/imgbot"
  },
  {
    "login": "jeyemwey",
    "avatar_url": "https://avatars.githubusercontent.com/u/2796271?v=4",
    "html_url": "https://github.com/jeyemwey"
  },
  {
    "login": "jmhobbs",
    "avatar_url": "https://avatars.githubusercontent.com/u/115059?v=4",
    "html_url": "https://github.com/jmhobbs"
  },
  {
    "login": "jyggiz",
    "avatar_url": "https://avatars.githubusercontent.com/u/40149112?v=4",
    "html_url": "https://github.com/jyggiz"
  },
  {
    "login": "krashanoff",
    "avatar_url": "https://avatars.githubusercontent.com/u/7704542?v=4",
    "html_url": "https://github.com/krashanoff"
  },
  {
    "login": "leowmjw",
    "avatar_url": "https://avatars.githubusercontent.com/u/920784?v=4",
    "html_url": "https://github.com/leowmjw"
  },
  {
    "login": "leuc",
    "avatar_url": "https://avatars.githubusercontent.com/u/47371249?v=4",
    "html_url": "https://github.com/leuc"
  },
  {
    "login": "lindner",
    "avatar_url": "https://avatars.githubusercontent.com/u/96715?v=4",
    "html_url": "https://github.com/lindner"
  },
  {
    "login": "mattdsteele",
    "avatar_url": "https://avatars.githubusercontent.com/u/389077?v=4",
    "html_url": "https://github.com/mattdsteele"
  },
  {
    "login": "mscherer",
    "avatar_url": "https://avatars.githubusercontent.com/u/230335?v=4",
    "html_url": "https://github.com/mscherer"
  },
  {
    "login": "muesli",
    "avatar_url": "https://avatars.githubusercontent.com/u/146378?v=4",
    "html_url": "https://github.com/muesli"
  },
  {
    "login": "nebunez",
    "avatar_url": "https://avatars.githubusercontent.com/u/76886915?v=4",
    "html_url": "https://github.com/nebunez"
  },
  {
    "login": "nforro",
    "avatar_url": "https://avatars.githubusercontent.com/u/14923067?v=4",
    "html_url": "https://github.com/nforro"
  },
  {
    "login": "nodomain",
    "avatar_url": "https://avatars.githubusercontent.com/u/104389?v=4",
    "html_url": "https://github.com/nodomain"
  },
  {
    "login": "nothub",
    "avatar_url": "https://avatars.githubusercontent.com/u/48992448?v=4",
    "html_url": "https://github.com/nothub"
  },
  {
    "login": "nthall",
    "avatar_url": "https://avatars.githubusercontent.com/u/632670?v=4",
    "html_url": "https://github.com/nthall"
  },
  {
    "login": "ooa113y",
    "avatar_url": "https://avatars.githubusercontent.com/u/462484?v=4",
    "html_url": "https://github.com/ooa113y"
  },
  {
    "login": "petersveter108",
    "avatar_url": "https://avatars.githubusercontent.com/u/65238126?v=4",
    "html_url": "https://github.com/petersveter108"
  },
  {
    "login": "rAcHekLoS",
    "avatar_url": "https://avatars.githubusercontent.com/u/42749713?v=4",
    "html_url": "https://github.com/rAcHekLoS"
  },
  {
    "login": "radiantly",
    "avatar_url": "https://avatars.githubusercontent.com/u/44368997?v=4",
    "html_url": "https://github.com/radiantly"
  },
  {
    "login": "remram44",
    "avatar_url": "https://avatars.githubusercontent.com/u/426784?v=4",
    "html_url": "https://github.com/remram44"
  },
  {
    "login": "ryliejamesthomas",
    "avatar_url": "https://avatars.githubusercontent.com/u/25972447?v=4",
    "html_url": "https://github.com/ryliejamesthomas"
  },
  {
    "login": "spannerman79",
    "avatar_url": "https://avatars.githubusercontent.com/u/7542384?v=4",
    "html_url": "https://github.com/spannerman79"
  },
  {
    "login": "sytranvn",
    "avatar_url": "https://avatars.githubusercontent.com/u/13009812?v=4",
    "html_url": "https://github.com/sytranvn"
  },
  {
    "login": "thilobillerbeck",
    "avatar_url": "https://avatars.githubusercontent.com/u/7442383?v=4",
    "html_url": "https://github.com/thilobillerbeck"
  },
  {
    "login": "tomleb",
    "avatar_url": "https://avatars.githubusercontent.com/u/7152146?v=4",
    "html_url": "https://github.com/tomleb"
  },
  {
    "login": "u5surf",
    "avatar_url": "https://avatars.githubusercontent.com/u/14180225?v=4",
    "html_url": "https://github.com/u5surf"
  },
  {
    "login": "unclearParadigm",
    "avatar_url": "https://avatars.githubusercontent.com/u/42910918?v=4",
    "html_url": "https://github.com/unclearParadigm"
  }
]
