{
    "default_server_name": "chat.imzqqq.top",
    "brand": "Chat",
    "integrations_ui_url": "https://scalar.vector.im/",
    "integrations_rest_url": "https://scalar.vector.im/api",
    "integrations_widgets_urls": [
        "https://scalar.vector.im/chat/integrations/v1",
        "https://scalar.vector.im/api",
        "https://scalar-staging.vector.im/chat/integrations/v1",
        "https://scalar-staging.vector.im/api",
        "https://scalar-staging.riot.im/scalar/api"
    ],
    "hosting_signup_link": "https://element.io/matrix-services?utm_source=element-web&utm_medium=web",
    "bug_report_endpoint_url": "https://element.io/bugreports/submit",
    "showLabsSettings": true,
    "piwik": {
        "url": "https://piwik.riot.im/",
        "siteId": 1,
        "policyUrl": "https://element.io/cookie-policy"
    },
    "roomDirectory": {
        "servers": [
            "chat.imzqqq.top",
            "gitter.im",
            "libera.chat"
        ]
    },
    "enable_presence_by_hs_url": {
        "https://chat.imzqqq.top": false,
        "https://matrix-client.chat.imzqqq.top": false
    },
    "terms_and_conditions_links": [
        {
            "url": "https://element.io/privacy",
            "text": "Privacy Policy"
        },
        {
            "url": "https://element.io/cookie-policy",
            "text": "Cookie Policy"
        }
    ],
    "hostSignup": {
      "brand": "Chat Home",
      "cookiePolicyUrl": "https://element.io/cookie-policy",
      "domains": [
          "chat.imzqqq.top"
      ],
      "privacyPolicyUrl": "https://element.io/privacy",
      "termsOfServiceUrl": "https://element.io/terms-of-service",
      "url": "https://ems.element.io/element-home/in-app-loader"
    },
    "sentry": {
        "dsn": "https://029a0eb289f942508ae0fb17935bd8c5@sentry.chat.imzqqq.top/6",
        "environment": "develop"
    },
    "posthog": {
        "projectApiKey": "phc_Jzsm6DTm6V2705zeU5dcNvQDlonOR68XvX2sh1sEOHO",
        "apiHost": "https://posthog.hss.element.io"
    }
}
