{
    "Your Chat configuration contains invalid JSON. Please correct the problem and reload the page.": "Konfigurace SchildiChatu obsahuje neplatný JSON. Opravte problém a načtěte stránku znovu.",
    "Download Completed": "Stahování dokončeno",
    "%(brand)s uses advanced browser features which aren't supported by your current browser.": "%(brand)s používá pokročilé funkce prohlížeče, které váš prohlížeč nepodporuje."
}
